[
  {
    "displayName": "Java with Spring Boot and MongoDB___",
    "description": "Java stack with OpenJDK 8, MongoDB and Spring Boot Guestbook demo application",
    "tags": [
      "Java",
      "OpenJDK",
      "Maven",
      "Spring Boot",
      "MongoDB"
    ],
    "icon": "/images/java.svg",
    "globalMemoryLimit": "2884Mi",
    "links": {
      "self": "/devfiles/java-mongo/devfile.yaml"
    }
  },
  {
    "displayName": "NodeJS MongoDB Web Application___",
    "description": "Stack with NodeJS 10 and MongoDB 3.4",
    "tags": [
      "NodeJS",
      "Express",
      "MongoDB",
      "RealWorld",
      "ubi8",
      "Centos"
    ],
    "icon": "/images/nodejs.svg",
    "globalMemoryLimit": "2198Mi",
    "links": {
      "self": "/devfiles/nodejs-mongo/devfile.yaml"
    }
  },
  {
    "displayName": "PHP Laravel with MySQL",
    "description": "PHP Stack with Laravel and MySQL real world application",
    "tags": [
      "PHP",
      "Apache",
      "MySQL",
      "Centos",
      "Debian"
    ],
    "icon": "/images/php.svg",
    "globalMemoryLimit": "2686Mi",
    "links": {
      "self": "/devfiles/php-laravel/devfile.yaml"
    }
  },
  {
    "displayName": "Python Django",
    "description": "Python Stack with Python 3.8 and Django application",
    "tags": [
      "Centos",
      "Python",
      "pip"
    ],
    "icon": "/images/python.svg",
    "globalMemoryLimit": "1686Mi",
    "links": {
      "self": "/devfiles/python-django/devfile.yaml"
    }
  },
  {
    "displayName": "Apache Camel based on Spring Boot",
    "description": "Stack with environment ready to develop Integration projects with Apache Camel based on Spring Boot.",
    "tags": [
      "Java",
      "OpenJDK",
      "Maven",
      "Debian",
      "Apache Camel",
      "Red Hat Fuse",
      "Spring Boot"
    ],
    "icon": "/images/camelk.svg",
    "globalMemoryLimit": "2930Mi",
    "links": {
      "self": "/devfiles/apache-camel-springboot/devfile.yaml"
    }
  },
  {
    "displayName": "NodeJS Web Application based on Yarn",
    "description": "Stack for developing NodeJS Web Application based on Yarn",
    "tags": [
      "NodeJS",
      "Alpine",
      "Yarn",
      "React"
    ],
    "icon": "/images/nodejs.svg",
    "globalMemoryLimit": "2198Mi",
    "links": {
      "self": "/devfiles/nodejs-yarn/devfile.yaml"
    }
  },
  {
    "displayName": "Python",
    "description": "Python Stack with Python 3.8",
    "tags": [
      "Centos",
      "Python",
      "pip"
    ],
    "icon": "/images/python.svg",
    "globalMemoryLimit": "1686Mi",
    "links": {
      "self": "/devfiles/python/devfile.yaml"
    }
  },
  {
    "displayName": "Java Gradle",
    "description": "Java Stack with OpenJDK 11 and Gradle 6.2.1",
    "tags": [
      "Java",
      "OpenJDK",
      "Gradle",
      "Ubuntu"
    ],
    "icon": "/images/java.svg",
    "globalMemoryLimit": "2674Mi",
    "links": {
      "self": "/devfiles/java-gradle/devfile.yaml"
    }
  },
  {
    "displayName": "C/C++",
    "description": "Stack with C/C++ and Clang 8",
    "tags": [
      "C/C++",
      "clang",
      "g++",
      "gdb"
    ],
    "icon": "/images/cpp.svg",
    "globalMemoryLimit": "1686Mi",
    "links": {
      "self": "/devfiles/cpp/devfile.yaml"
    }
  },
  {
    "displayName": "Scala",
    "description": "Scala Stack with OpenJDK 11 and sbt 1.x",
    "tags": [
      "Scala",
      "OpenJDK",
      "sbt",
      "Debian"
    ],
    "icon": "/images/scala.svg",
    "globalMemoryLimit": "2674Mi",
    "links": {
      "self": "/devfiles/scala-sbt/devfile.yaml"
    }
  },
  {
    "displayName": "Apache Camel K",
    "description": "Stack with tooling ready to develop Integration projects with Apache Camel K",
    "tags": [
      "Apache Camel K",
      "Red Hat Fuse",
      "Integration"
    ],
    "icon": "/images/camelk.svg",
    "globalMemoryLimit": "2850Mi",
    "links": {
      "self": "/devfiles/apache-camel-k/devfile.yaml"
    }
  },
  {
    "displayName": "Rust",
    "description": "Rust Stack with Rust 1.39",
    "tags": [
      "Rust"
    ],
    "icon": "/images/rust.svg",
    "globalMemoryLimit": "1686Mi",
    "links": {
      "self": "/devfiles/rust/devfile.yaml"
    }
  },
  {
    "displayName": "NodeJS Express Web Application",
    "description": "Stack with NodeJS 10",
    "tags": [
      "NodeJS",
      "Express",
      "ubi8"
    ],
    "icon": "/images/nodejs.svg",
    "globalMemoryLimit": "2198Mi",
    "links": {
      "self": "/devfiles/nodejs/devfile.yaml"
    }
  },
  {
    "displayName": "Java Maven",
    "description": "Java Stack with OpenJDK 11 and Maven 3.6.0",
    "tags": [
      "Java",
      "OpenJDK",
      "Maven",
      "Debian"
    ],
    "icon": "/images/java.svg",
    "globalMemoryLimit": "2674Mi",
    "links": {
      "self": "/devfiles/java-maven/devfile.yaml"
    }
  },
  {
    "displayName": "Bash",
    "description": "Stack with environment ready to develop bash scripts.",
    "tags": [
      "Bash",
      "Shell"
    ],
    "icon": "/images/che.svg",
    "globalMemoryLimit": "2930Mi",
    "links": {
      "self": "/devfiles/bash/devfile.yaml"
    }
  },
  {
    "displayName": "Mainframe Basic Stack",
    "description": "Che4z Mainframe Basic Stack is an all-in-one extension pack for developers working with z/OS applications, suitable for all levels of mainframe experience, even beginners.",
    "tags": [
      "Che4z",
      "Zowe",
      "mainframe",
      "Endevor",
      "explorer",
      "dataset",
      "COBOL",
      "JCL",
      "zOS",
      "USS",
      "HLASM",
      "InterTest",
      "debug"
    ],
    "icon": "/images/che4z.svg",
    "globalMemoryLimit": "3Gi",
    "links": {
      "self": "/devfiles/che4z/devfile.yaml"
    }
  },
  {
    "displayName": "PHP with MySQL",
    "description": "PHP Stack with MySQL and simple database application",
    "tags": [
      "PHP",
      "Apache",
      "MySQL",
      "Debian",
      "Centos"
    ],
    "icon": "/images/php.svg",
    "globalMemoryLimit": "2686Mi",
    "links": {
      "self": "/devfiles/php-mysql/devfile.yaml"
    }
  },
  {
    "displayName": "PHP Simple",
    "description": "PHP Stack with PHP 7.1 and simple web application",
    "tags": [
      "PHP",
      "Apache",
      "Debian"
    ],
    "icon": "/images/php.svg",
    "globalMemoryLimit": "2430Mi",
    "links": {
      "self": "/devfiles/php-web-simple/devfile.yaml"
    }
  },
  {
    "displayName": "NodeJS React Web Application",
    "description": "Stack for developing NodeJS React Web Application",
    "tags": [
      "NodeJS",
      "React",
      "Redux",
      "RealWorld"
    ],
    "icon": "/images/nodejs.svg",
    "globalMemoryLimit": "1686Mi",
    "links": {
      "self": "/devfiles/nodejs-react/devfile.yaml"
    }
  },
  {
    "displayName": "Bash Test",
    "description": "Stack with environment ready to develop bash test scripts.",
    "tags": [
      "Bash",
      "Shell"
    ],
    "icon": "/images/che.svg",
    "globalMemoryLimit": "2930Mi",
    "links": {
      "self": "/devfiles/gr-bash/devfile.yaml"
    }
  },
  {
    "displayName": "Go",
    "description": "Stack with Go 1.14",
    "tags": [
      "Debian",
      "Go"
    ],
    "icon": "/images/go.svg",
    "globalMemoryLimit": "1686Mi",
    "links": {
      "self": "/devfiles/go/devfile.yaml"
    }
  },
  {
    "displayName": "ASP.NET Core Web Application",
    "description": "Stack for developing ASP.NET Core Web Application",
    "tags": [
      "Debian",
      "Dotnet",
      "C#",
      "ASP.NET"
    ],
    "icon": "/images/dotnetcore.svg",
    "globalMemoryLimit": "2710Mi",
    "links": {
      "self": "/devfiles/dotnet-asp.net/devfile.yaml"
    }
  },
  {
    "displayName": "PHP Symfony",
    "description": "PHP Stack with Symfony Demo Application https://symfony.com/",
    "tags": [
      "PHP",
      "Apache",
      "MySQL",
      "Symfony",
      "Debian",
      "Centos"
    ],
    "icon": "/images/php.svg",
    "globalMemoryLimit": "2686Mi",
    "links": {
      "self": "/devfiles/php-symfony/devfile.yaml"
    }
  },
  {
    "displayName": "NodeJS Angular Web Application",
    "description": "Stack for developing NodeJS Angular Web Application",
    "tags": [
      "NodeJS",
      "Angular",
      "Alpine"
    ],
    "icon": "/images/angular.svg",
    "globalMemoryLimit": "2686Mi",
    "links": {
      "self": "/devfiles/angular/devfile.yaml"
    }
  },
  {
    "displayName": ".NET Core",
    "description": "Stack with .Net 3.1",
    "tags": [
      "Debian",
      "Dotnet",
      "C#"
    ],
    "icon": "/images/dotnetcore.svg",
    "globalMemoryLimit": "2710Mi",
    "links": {
      "self": "/devfiles/dotnet/devfile.yaml"
    }
  },
  {
    "displayName": "Quarkus CLI",
    "description": "Quarkus stack with a command-mode sample",
    "tags": [
      "Java",
      "Quarkus",
      "OpenJDK",
      "Maven",
      "Debian"
    ],
    "icon": "/images/quarkus.svg",
    "globalMemoryLimit": "2674Mi",
    "links": {
      "self": "/devfiles/quarkus-command-mode/devfile.yaml"
    }
  },
  {
    "displayName": "Java Lombok",
    "description": "Java Stack with Lombok 1.18.18, OpenJDK 11 and Maven 3.6.0",
    "tags": [
      "Java",
      "OpenJDK",
      "Maven",
      "Debian",
      "Lombok"
    ],
    "icon": "/images/lombok.svg",
    "globalMemoryLimit": "2674Mi",
    "links": {
      "self": "/devfiles/lombok/devfile.yaml"
    }
  },
  {
    "displayName": "Java Vert.x",
    "description": "Java stack with OpenJDK 8 and Vert.x demo application",
    "tags": [
      "Java",
      "OpenJDK",
      "Maven",
      "Vertx"
    ],
    "icon": "/images/vertx.svg",
    "globalMemoryLimit": "2674Mi",
    "links": {
      "self": "/devfiles/java-web-vertx/devfile.yaml"
    }
  },
  {
    "displayName": "Java with Spring Boot and MySQL",
    "description": "Java stack with OpenJDK 8, MySQL and Spring Boot Petclinic demo application",
    "tags": [
      "Java",
      "OpenJDK",
      "Maven",
      "Spring Boot",
      "MySQL"
    ],
    "icon": "/images/springboot.svg",
    "globalMemoryLimit": "3372Mi",
    "links": {
      "self": "/devfiles/java-mysql/devfile.yaml"
    }
  },
  {
    "displayName": "Java Spring Boot",
    "description": "Java stack with OpenJDK 11 and Spring Boot Petclinic demo application",
    "tags": [
      "Java",
      "OpenJDK",
      "Maven",
      "Spring Boot"
    ],
    "icon": "/images/springboot.svg",
    "globalMemoryLimit": "3072Mi",
    "links": {
      "self": "/devfiles/java-web-spring/devfile.yaml"
    }
  },
  {
    "displayName": "Quarkus REST API",
    "description": "Quarkus stack with a default REST endpoint application sample",
    "tags": [
      "Java",
      "Quarkus",
      "OpenJDK",
      "Maven",
      "Debian"
    ],
    "icon": "/images/quarkus.svg",
    "globalMemoryLimit": "2674Mi",
    "links": {
      "self": "/devfiles/quarkus/devfile.yaml"
    }
  }
]
